^C:\USERS\ОНТОН\SOURCE\REPOS\HOMEWORK 14.4\HOMEWORK 14.4.CPP
C:\USERS\Онтон\SOURCE\REPOS\HOMEWORK 14.4\DEBUG\VC142.PDB
C:\USERS\Онтон\SOURCE\REPOS\HOMEWORK 14.4\DEBUG\VC142.IDB
C:\USERS\Онтон\SOURCE\REPOS\HOMEWORK 14.4\DEBUG\HOMEWORK 14.4.OBJ
